[gd_scene load_steps=5 format=1]

[ext_resource path="res://scripts/fireball.gd" type="Script" id=1]
[ext_resource path="res://assets/fireball_0.png" type="Texture" id=2]

[sub_resource type="CircleShape2D" id=1]

custom_solver_bias = 0.0
radius = 7.07107

[sub_resource type="Animation" id=2]

length = 1.75
loop = true
step = 0.25
tracks/0/type = "value"
tracks/0/path = NodePath(".:frame")
tracks/0/interp = 1
tracks/0/imported = false
tracks/0/keys = { "times":FloatArray( 0, 0.25, 0.5, 0.75, 1, 1.25, 1.5, 1.75 ), "transitions":FloatArray( 1, 1, 1, 1, 1, 1, 1, 1 ), "update":1, "values":[ 32, 33, 34, 35, 36, 37, 38, 39 ] }

[node name="fireball" type="KinematicBody2D"]

input/pickable = false
shapes/0/shape = SubResource( 1 )
shapes/0/transform = Matrix32( 1, 0, 0, 1, 21, 1 )
shapes/0/trigger = false
collision/layers = 1
collision/mask = 1
collision/margin = 0.08
script/script = ExtResource( 1 )

[node name="Sprite" type="Sprite" parent="."]

texture = ExtResource( 2 )
vframes = 8
hframes = 8
frame = 34

[node name="AnimationPlayer" type="AnimationPlayer" parent="Sprite"]

playback/process_mode = 1
playback/default_blend_time = 0.0
root/root = NodePath("..")
anims/Fireball = SubResource( 2 )
playback/active = true
playback/speed = 1.0
blend_times = [  ]
autoplay = "Fireball"

[node name="CollisionShape2D" type="CollisionShape2D" parent="."]

transform/pos = Vector2( 21, 1 )
shape = SubResource( 1 )
trigger = false
_update_shape_index = 0

[node name="VisibilityNotifier2D" type="VisibilityNotifier2D" parent="."]

transform/pos = Vector2( -1.90735e-06, -3 )
transform/scale = Vector2( 4.4, 2.3 )
rect = Rect2( -10, -10, 20, 20 )

[connection signal="exit_screen" from="VisibilityNotifier2D" to="." method="_on_VisibilityNotifier2D_exit_screen"]


